Topic Modeling Academic Mental Health Tweets
…
.pull-left-narrow[.font130[.red[**I also decided that stemming was not beneficial in my case.**]]]
.pull-right-wide[

```r
stemmed_tweets <- mh_tweets %>%
  unnest_tokens(output = word, input = text) %>%
  anti_join(stop_words, by = "word") %>%
  anti_join(custom_stop, by = "word") %>% 
  mutate(stem = wordStem(word))
```
]

```
## # A tibble: 9,845 x 6
##    status_id         screen_name   favorite_count retweet_count word      stem    
##    <chr>             <chr>                  <dbl>         <dbl> <chr>     <chr>   
##  1 1367141193369403… SarahRuddell6              0             0 qubewell  qubewel 
##  2 1367141193369403… SarahRuddell6              0             0 universi… univers 
##  3 1367141193369403… SarahRuddell6              0             0 mental    mental  
##  4 1367141193369403… SarahRuddell6              0             0 health    health  
##  5 1367141193369403… SarahRuddell6              0             0 week      week    
##  6 1367141193369403… SarahRuddell6              0             0 mental    mental  
##  7 1367141193369403… SarahRuddell6              0             0 health    health  
##  8 1367141193369403… SarahRuddell6              0             0 incredib… incredi…
##  9 1367141193369403… SarahRuddell6              0             0 aware     awar    
## 10 1367141193369403… SarahRuddell6              0             0 care      care    
## # … with 9,835 more rows
```
…
